{
    "editor": [
        {
            "icon": "",
            "key": "settings",
            "header": "Settings",
            "disabled": false,
            "fields": [
                {
                    "key": "title",
                    "header": "Title",
                    "type": "text"
                },
                {
                    "key": "titleFont",
                    "header": "Google Font Name",
                    "type": "text"
                },
                {
                    "key": "titleColor",
                    "header": "Title Color",
                    "type": "color"
                },
                {
                    "key": "description",
                    "header": "description",
                    "type": "text"
                },
                {
                    "key": "desColor",
                    "header": "Description Color",
                    "type": "color"
                },
                {
                    "key": "labelColor",
                    "header": "Label Color",
                    "type": "color"
                },
                {
                    "key": "backgroundImage",
                    "header": "Background Image",
                    "type": "image"
                },
                {
                    "key": "items",
                    "header": "Items",
                    "type": "array",
                    "fields": [
                        {
                            "key": "item1",
                            "header": "Item 1",
                            "type": "array",
                            "fields": [
                                {
                                    "key": "image",
                                    "header": "Item 1 Image",
                                    "type": "image"
                                },
                                {
                                    "key": "label",
                                    "header": "Item 1 Label",
                                    "type": "text"
                                },
                                {
                                    "key": "probability",
                                    "header": "Probabilty of item",
                                    "type": "range"
                                }
                            ]
                        },
                        {
                            "key": "item2",
                            "header": "Item 2",
                            "type": "array",
                            "fields": [
                                {
                                    "key": "image",
                                    "header": "Item 2 Image",
                                    "type": "image"
                                },
                                {
                                    "key": "label",
                                    "header": "Item 2 Label",
                                    "type": "text"
                                },
                                {
                                    "key": "probability",
                                    "header": "Probabilty of item",
                                    "type": "range"
                                }
                            ]
                        },
                        {
                            "key": "item3",
                            "header": "Item 3",
                            "type": "array",
                            "fields": [
                                {
                                    "key": "image",
                                    "header": "Item 3 Image",
                                    "type": "image"
                                },
                                {
                                    "key": "label",
                                    "header": "Item 3 Label",
                                    "type": "text"
                                },
                                {
                                    "key": "probability",
                                    "header": "Probabilty of item",
                                    "type": "range"
                                }
                            ]
                        }
                    ]
                }
            ]
        }
    ],
    "config": {
        "settings": {
            "title": "Next Coinbase listing",
            "titleFont": "Poppins",
            "titleColor": "#ffffff",
            "description": "Scratch the crystal ball",
            "desColor": "#959595",
            "backgroundImage": "https://frontend.apps.playcent.com/38c8844f2e844273a7eb81bdfca2e48e/assets/1024px-Computer-screen-code-glitch-animation-gif-background-free.gif",
            "labelColor": "#ffffff",
            "items": {
                "item1": {
                    "image": "https://frontend.apps.playcent.com/38c8844f2e844273a7eb81bdfca2e48e/assets/images (6).jpeg",
                    "label": "Swipe",
                    "probability": "0.2"
                },
                "item2": {
                    "image": "https://frontend.apps.playcent.com/38c8844f2e844273a7eb81bdfca2e48e/assets/KAVA-logo-min.jpg",
                    "label": "Kava",
                    "probability": "0.3"
                },
                "item3": {
                    "image": "https://frontend.apps.playcent.com/38c8844f2e844273a7eb81bdfca2e48e/assets/5426.png",
                    "label": "Solana",
                    "probability": "0.5"
                }
            }
        }
    }
}